<?xml version="1.0" encoding="UTF-8"?>
<!DOCTYPE svg PUBLIC '-//W3C//DTD SVG 1.0//EN'
          'http://www.w3.org/TR/2001/REC-SVG-20010904/DTD/svg10.dtd'>
<svg fill-opacity="1" xmlns:xlink="http://www.w3.org/1999/xlink" color-rendering="auto" color-interpolation="auto" text-rendering="auto" stroke="black" stroke-linecap="square" width="2000" stroke-miterlimit="10" shape-rendering="auto" stroke-opacity="1" fill="black" stroke-dasharray="none" font-weight="normal" stroke-width="1" height="3000" xmlns="http://www.w3.org/2000/svg" font-family="'Dialog'" font-style="normal" stroke-linejoin="miter" font-size="12px" stroke-dashoffset="0" image-rendering="auto"
><!--Generated by the Batik Graphics2D SVG Generator--><defs id="genericDefs"
  /><g
  ><g fill="rgb(9,160,210)" text-rendering="optimizeLegibility" transform="matrix(1,0,0,-1,0,3000)" stroke="rgb(9,160,210)"
    ><rect x="0" width="2000" height="3000" y="0" stroke="none"
    /></g
    ><g fill="rgb(10,10,10)" text-rendering="optimizeLegibility" transform="matrix(1,0,0,-1,0,3000) translate(0,-22) rotate(90)" stroke="rgb(10,10,10)"
    ><rect x="0" width="3044" height="22" y="0" stroke="none"
      /><rect fill="none" x="0" width="3044" height="22" y="0"
    /></g
    ><g fill="rgb(10,10,10)" text-rendering="optimizeLegibility" transform="matrix(1,0,0,-1,0,3000) translate(0,-22)" stroke="rgb(10,10,10)"
    ><rect x="0" width="2000" height="22" y="0" stroke="none"
      /><rect fill="none" x="0" width="2000" height="22" y="0"
    /></g
    ><g fill="rgb(10,10,10)" text-rendering="optimizeLegibility" transform="matrix(1,0,0,-1,0,3000) translate(2022,-22) rotate(90)" stroke="rgb(10,10,10)"
    ><rect x="0" width="3044" height="22" y="0" stroke="none"
      /><rect fill="none" x="0" width="3044" height="22" y="0"
    /></g
    ><g fill="rgb(10,10,10)" text-rendering="optimizeLegibility" transform="matrix(1,0,0,-1,0,3000) translate(0,3000)" stroke="rgb(10,10,10)"
    ><rect x="0" width="2000" height="22" y="0" stroke="none"
      /><rect fill="none" x="0" width="2000" height="22" y="0"
    /></g
    ><g fill="blue" text-rendering="optimizeLegibility" transform="matrix(1,0,0,-1,0,3000)" stroke="blue"
    ><path d="M-22 3022 L100 3022 L100 3144 L55 3144 L55 3094 C55 3089 45 3089 45 3094 L45 3144 L-22 3144 Z" stroke="none"
      /><path fill="none" d="M-22 3022 L100 3022 L100 3144 L55 3144 L55 3094 C55 3089 45 3089 45 3094 L45 3144 L-22 3144 Z" stroke="rgb(10,10,10)"
      /><path d="M-22 3022 L100 3022 L100 3044 L0 3044 L0 3144 L-22 3144 Z" stroke="none"
      /><path fill="none" d="M-22 3022 L100 3022 L100 3044 L0 3044 L0 3144 L-22 3144 Z" stroke="rgb(10,10,10)"
    /></g
    ><g fill="yellow" text-rendering="optimizeLegibility" transform="matrix(1,0,0,-1,0,3000)" stroke="yellow"
    ><path d="M928 3022 L1050 3022 L1050 3144 L1005 3144 L1005 3094 C1005 3089 995 3089 995 3094 L995 3144 L928 3144 Z" stroke="none"
      /><path fill="none" d="M928 3022 L1050 3022 L1050 3144 L1005 3144 L1005 3094 C1005 3089 995 3089 995 3094 L995 3144 L928 3144 Z" stroke="rgb(10,10,10)"
      /><path d="M928 3022 L1050 3022 L1050 3044 L950 3044 L950 3144 L928 3144 Z" stroke="none"
      /><path fill="none" d="M928 3022 L1050 3022 L1050 3044 L950 3044 L950 3144 L928 3144 Z" stroke="rgb(10,10,10)"
    /></g
    ><g fill="blue" text-rendering="optimizeLegibility" transform="matrix(1,0,0,-1,0,3000)" stroke="blue"
    ><path d="M1878 3022 L2000 3022 L2000 3144 L1955 3144 L1955 3094 C1955 3089 1945 3089 1945 3094 L1945 3144 L1878 3144 Z" stroke="none"
      /><path fill="none" d="M1878 3022 L2000 3022 L2000 3144 L1955 3144 L1955 3094 C1955 3089 1945 3089 1945 3094 L1945 3144 L1878 3144 Z" stroke="rgb(10,10,10)"
      /><path d="M1878 3022 L2000 3022 L2000 3044 L1900 3044 L1900 3144 L1878 3144 Z" stroke="none"
      /><path fill="none" d="M1878 3022 L2000 3022 L2000 3044 L1900 3044 L1900 3144 L1878 3144 Z" stroke="rgb(10,10,10)"
    /></g
    ><g fill="yellow" text-rendering="optimizeLegibility" transform="matrix(1,0,0,-1,0,3000) translate(50,-94) scale(1,-1) translate(-50,94)" stroke="yellow"
    ><path d="M-22 -166 L100 -166 L100 -44 L55 -44 L55 -94 C55 -99 45 -99 45 -94 L45 -44 L-22 -44 Z" stroke="none"
      /><path fill="none" d="M-22 -166 L100 -166 L100 -44 L55 -44 L55 -94 C55 -99 45 -99 45 -94 L45 -44 L-22 -44 Z" stroke="rgb(10,10,10)"
      /><path d="M-22 -166 L100 -166 L100 -144 L0 -144 L0 -44 L-22 -44 Z" stroke="none"
      /><path fill="none" d="M-22 -166 L100 -166 L100 -144 L0 -144 L0 -44 L-22 -44 Z" stroke="rgb(10,10,10)"
    /></g
    ><g fill="blue" text-rendering="optimizeLegibility" transform="matrix(1,0,0,-1,0,3000) translate(1000,-94) scale(1,-1) translate(-1000,94)" stroke="blue"
    ><path d="M928 -166 L1050 -166 L1050 -44 L1005 -44 L1005 -94 C1005 -99 995 -99 995 -94 L995 -44 L928 -44 Z" stroke="none"
      /><path fill="none" d="M928 -166 L1050 -166 L1050 -44 L1005 -44 L1005 -94 C1005 -99 995 -99 995 -94 L995 -44 L928 -44 Z" stroke="rgb(10,10,10)"
      /><path d="M928 -166 L1050 -166 L1050 -144 L950 -144 L950 -44 L928 -44 Z" stroke="none"
      /><path fill="none" d="M928 -166 L1050 -166 L1050 -144 L950 -144 L950 -44 L928 -44 Z" stroke="rgb(10,10,10)"
    /></g
    ><g fill="yellow" text-rendering="optimizeLegibility" transform="matrix(1,0,0,-1,0,3000) translate(1950,-94) scale(1,-1) translate(-1950,94)" stroke="yellow"
    ><path d="M1878 -166 L2000 -166 L2000 -44 L1955 -44 L1955 -94 C1955 -99 1945 -99 1945 -94 L1945 -44 L1878 -44 Z" stroke="none"
      /><path fill="none" d="M1878 -166 L2000 -166 L2000 -44 L1955 -44 L1955 -94 C1955 -99 1945 -99 1945 -94 L1945 -44 L1878 -44 Z" stroke="rgb(10,10,10)"
      /><path d="M1878 -166 L2000 -166 L2000 -144 L1900 -144 L1900 -44 L1878 -44 Z" stroke="none"
      /><path fill="none" d="M1878 -166 L2000 -166 L2000 -144 L1900 -144 L1900 -44 L1878 -44 Z" stroke="rgb(10,10,10)"
    /></g
    ><g fill="rgb(184,183,153)" text-rendering="optimizeLegibility" transform="matrix(1,0,0,-1,0,3000)" stroke="rgb(184,183,153)"
    ><path d="M-44 1040 L-22 1040 L-22 1960 L-44 1960 L-44 1575 L-244 1575 L-244 1425 L-44 1425 Z" stroke="none"
      /><path fill="none" d="M-44 1040 L-22 1040 L-22 1960 L-44 1960 L-44 1575 L-244 1575 L-244 1425 L-44 1425 Z" stroke="rgb(10,10,10)"
      /><path fill="blue" d="M-222 1500 L-22 1500 L-22 1700 L-117 1700 L-117 1600 C-117 1595 -127 1595 -127 1600 L-127 1700 L-222 1700 Z" stroke="none"
      /><path fill="none" d="M-222 1500 L-22 1500 L-22 1700 L-117 1700 L-117 1600 C-117 1595 -127 1595 -127 1600 L-127 1700 L-222 1700 Z" stroke="rgb(10,10,10)"
      /><path fill="yellow" d="M-222 1500 L-22 1500 L-22 1300 L-117 1300 L-117 1400 C-117 1405 -127 1405 -127 1400 L-127 1300 L-222 1300 Z" stroke="none"
      /><path fill="none" d="M-222 1500 L-22 1500 L-22 1300 L-117 1300 L-117 1400 C-117 1405 -127 1405 -127 1400 L-127 1300 L-222 1300 Z" stroke="rgb(10,10,10)"
    /></g
    ><g fill="rgb(10,10,10)" text-rendering="optimizeLegibility" transform="matrix(1,0,0,-1,0,3000)" stroke="rgb(10,10,10)"
    ><rect x="0" width="2000" height="1" y="1000" stroke="none"
    /></g
    ><g fill="rgb(10,10,10)" text-rendering="optimizeLegibility" transform="matrix(1,0,0,-1,0,3000)" stroke="rgb(10,10,10)"
    ><rect x="0" width="2000" height="1" y="2000" stroke="none"
    /></g
    ><g fill="rgb(184,183,153)" text-rendering="optimizeLegibility" transform="matrix(1,0,0,-1,0,3000)" stroke="rgb(184,183,153)"
    ><path d="M1850 889 L2000 889 L2000 911 L1850 911 Z" stroke="none"
      /><path fill="none" d="M1850 889 L2000 889 L2000 911 L1850 911 Z" stroke="rgb(10,10,10)"
    /></g
    ><g fill="rgb(184,183,153)" text-rendering="optimizeLegibility" transform="matrix(1,0,0,-1,0,3000)" stroke="rgb(184,183,153)"
    ><path d="M1700 1489 L2000 1489 L2000 1511 L1700 1511 Z" stroke="none"
      /><path fill="none" d="M1700 1489 L2000 1489 L2000 1511 L1700 1511 Z" stroke="rgb(10,10,10)"
    /></g
    ><g fill="rgb(184,183,153)" text-rendering="optimizeLegibility" transform="matrix(1,0,0,-1,0,3000)" stroke="rgb(184,183,153)"
    ><path d="M1850 2089 L2000 2089 L2000 2111 L1850 2111 Z" stroke="none"
      /><path fill="none" d="M1850 2089 L2000 2089 L2000 2111 L1850 2111 Z" stroke="rgb(10,10,10)"
    /></g
    ><g fill="blue" text-rendering="optimizeLegibility" transform="matrix(1,0,0,-1,0,3000)" stroke="blue"
    ><path d="M-222 0 L-22 0 L-22 450 L-222 450 L-222 230 L-122 230 C-117 230 -117 220 -122 220 L-222 220 Z" stroke="none"
      /><path fill="none" d="M-222 0 L-22 0 L-22 450 L-222 450 L-222 230 L-122 230 C-117 230 -117 220 -122 220 L-222 220 Z" stroke="rgb(10,10,10)"
    /></g
    ><g fill="yellow" text-rendering="optimizeLegibility" transform="matrix(1,0,0,-1,0,3000)" stroke="yellow"
    ><path d="M-222 2550 L-22 2550 L-22 3000 L-222 3000 L-222 2780 L-122 2780 C-117 2780 -117 2770 -122 2770 L-222 2770 Z" stroke="none"
      /><path fill="none" d="M-222 2550 L-22 2550 L-22 3000 L-222 3000 L-222 2780 L-122 2780 C-117 2780 -117 2770 -122 2770 L-222 2770 Z" stroke="rgb(10,10,10)"
    /></g
    ><g fill="rgb(3,97,128)" text-rendering="optimizeLegibility" transform="matrix(1,0,0,-1,0,3000) translate(500,0) rotate(90)" stroke="rgb(3,97,128)"
    ><path d="M0 0 L0 400 C0 400 400 400 400 0 Z" stroke="none"
    /></g
    ><g fill="rgb(90,188,221)" text-rendering="optimizeLegibility" transform="matrix(1,0,0,-1,0,3000) translate(1100,0)" stroke="rgb(90,188,221)"
    ><path d="M0 0 L0 400 C0 400 400 400 400 0 Z" stroke="none"
    /></g
    ><g fill="rgb(3,97,128)" text-rendering="optimizeLegibility" transform="matrix(1,0,0,-1,0,3000) translate(500,3000) rotate(180)" stroke="rgb(3,97,128)"
    ><path d="M0 0 L0 400 C0 400 400 400 400 0 Z" stroke="none"
    /></g
    ><g fill="rgb(90,188,221)" text-rendering="optimizeLegibility" transform="matrix(1,0,0,-1,0,3000) translate(1100,3000) rotate(-90)" stroke="rgb(90,188,221)"
    ><path d="M0 0 L0 400 C0 400 400 400 400 0 Z" stroke="none"
    /></g
    ><g fill="rgb(241,236,225)" text-rendering="optimizeLegibility" transform="matrix(1,0,0,-1,0,3000) translate(1000,2000)" stroke="rgb(241,236,225)"
    ><path d="M0 -10 C0 -10 200 -10 300 172 C300 172 400 355 600 355 L1000 355 L1000 375 L600 375 C600 375 400 375 300 192 C300 192 200 10 0 10 L-510 10 C-510 10 -600 10 -700 85 C-700 85 -800 160 -1000 160 L-1000 160 L-1000 140 C-1000 140 -800 140 -700 65 C-700 65 -600 -10 -510 -10 Z" stroke="none"
      /><path fill="none" d="M0 -10 C0 -10 200 -10 300 172 C300 172 400 355 600 355 L1000 355 L1000 375 L600 375 C600 375 400 375 300 192 C300 192 200 10 0 10 L-510 10 C-510 10 -600 10 -700 85 C-700 85 -800 160 -1000 160 L-1000 160 L-1000 140 C-1000 140 -800 140 -700 65 C-700 65 -600 -10 -510 -10 Z" stroke="rgb(10,10,10)"
    /></g
    ><g fill="rgb(241,236,225)" text-rendering="optimizeLegibility" transform="matrix(1,0,0,-1,0,3000) translate(1000,1000) scale(1,-1)" stroke="rgb(241,236,225)"
    ><path d="M0 -10 C0 -10 200 -10 300 172 C300 172 400 355 600 355 L1000 355 L1000 375 L600 375 C600 375 400 375 300 192 C300 192 200 10 0 10 L-510 10 C-510 10 -600 10 -700 85 C-700 85 -800 160 -1000 160 L-1000 160 L-1000 140 C-1000 140 -800 140 -700 65 C-700 65 -600 -10 -510 -10 Z" stroke="none"
      /><path fill="none" d="M0 -10 C0 -10 200 -10 300 172 C300 172 400 355 600 355 L1000 355 L1000 375 L600 375 C600 375 400 375 300 192 C300 192 200 10 0 10 L-510 10 C-510 10 -600 10 -700 85 C-700 85 -800 160 -1000 160 L-1000 160 L-1000 140 C-1000 140 -800 140 -700 65 C-700 65 -600 -10 -510 -10 Z" stroke="rgb(10,10,10)"
    /></g
    ><g fill="rgb(241,236,225)" text-rendering="optimizeLegibility" transform="matrix(1,0,0,-1,0,3000) translate(1000,2400)" stroke="rgb(241,236,225)"
    ><path d="M0 -10 C0 -10 200 -10 350 175 C350 175 500 360 600 360 L1000 360 L1000 380 L600 380 C600 380 500 380 350 195 C350 195 200 10 0 10 L-450 10 C-450 10 -600 10 -700 195 C-700 195 -800 380 -1000 380 L-1000 380 L-1000 360 C-1000 360 -800 360 -700 175 C-700 175 -600 -10 -450 -10 Z" stroke="none"
      /><path fill="none" d="M0 -10 C0 -10 200 -10 350 175 C350 175 500 360 600 360 L1000 360 L1000 380 L600 380 C600 380 500 380 350 195 C350 195 200 10 0 10 L-450 10 C-450 10 -600 10 -700 195 C-700 195 -800 380 -1000 380 L-1000 380 L-1000 360 C-1000 360 -800 360 -700 175 C-700 175 -600 -10 -450 -10 Z" stroke="rgb(10,10,10)"
    /></g
    ><g fill="rgb(241,236,225)" text-rendering="optimizeLegibility" transform="matrix(1,0,0,-1,0,3000) translate(1000,600) scale(1,-1)" stroke="rgb(241,236,225)"
    ><path d="M0 -10 C0 -10 200 -10 350 175 C350 175 500 360 600 360 L1000 360 L1000 380 L600 380 C600 380 500 380 350 195 C350 195 200 10 0 10 L-450 10 C-450 10 -600 10 -700 195 C-700 195 -800 380 -1000 380 L-1000 380 L-1000 360 C-1000 360 -800 360 -700 175 C-700 175 -600 -10 -450 -10 Z" stroke="none"
      /><path fill="none" d="M0 -10 C0 -10 200 -10 350 175 C350 175 500 360 600 360 L1000 360 L1000 380 L600 380 C600 380 500 380 350 195 C350 195 200 10 0 10 L-450 10 C-450 10 -600 10 -700 195 C-700 195 -800 380 -1000 380 L-1000 380 L-1000 360 C-1000 360 -800 360 -700 175 C-700 175 -600 -10 -450 -10 Z" stroke="rgb(10,10,10)"
    /></g
    ><g fill="blue" text-rendering="optimizeLegibility" transform="matrix(1,0,0,-1,0,3000)" stroke="blue"
    ><path d="M530 0 L1070 0 L1070 400 L530 400 Z" stroke="none"
    /></g
    ><g fill="yellow" text-rendering="optimizeLegibility" transform="matrix(1,0,0,-1,0,3000)" stroke="yellow"
    ><path d="M530 2600 L1070 2600 L1070 3000 L530 3000 Z" stroke="none"
    /></g
    ><g fill="lime" text-rendering="optimizeLegibility" transform="matrix(1,0,0,-1,0,3000)" stroke="lime"
    ><path d="M500 0 L530 0 L530 400 L500 400 Z" stroke="none"
    /></g
    ><g fill="red" text-rendering="optimizeLegibility" transform="matrix(1,0,0,-1,0,3000)" stroke="red"
    ><path d="M1070 0 L1100 0 L1100 400 L1070 400 Z" stroke="none"
    /></g
    ><g fill="red" text-rendering="optimizeLegibility" transform="matrix(1,0,0,-1,0,3000)" stroke="red"
    ><path d="M500 2600 L530 2600 L530 3000 L500 3000 Z" stroke="none"
    /></g
    ><g fill="lime" text-rendering="optimizeLegibility" transform="matrix(1,0,0,-1,0,3000)" stroke="lime"
    ><path d="M1070 2600 L1100 2600 L1100 3000 L1070 3000 Z" stroke="none"
    /></g
    ><g fill="lime" text-rendering="optimizeLegibility" transform="matrix(1,0,0,-1,0,3000)" stroke="lime"
    ><path d="M1700 1050 L2000 1050 L2000 1150 L1700 1150 Z" stroke="none"
    /></g
    ><g fill="yellow" text-rendering="optimizeLegibility" transform="matrix(1,0,0,-1,0,3000)" stroke="yellow"
    ><path d="M1700 1150 L2000 1150 L2000 1250 L1700 1250 Z" stroke="none"
    /></g
    ><g fill="red" text-rendering="optimizeLegibility" transform="matrix(1,0,0,-1,0,3000)" stroke="red"
    ><path d="M1700 1250 L2000 1250 L2000 1350 L1700 1350 Z" stroke="none"
    /></g
    ><g fill="lime" text-rendering="optimizeLegibility" transform="matrix(1,0,0,-1,0,3000)" stroke="lime"
    ><path d="M1700 1650 L2000 1650 L2000 1750 L1700 1750 Z" stroke="none"
    /></g
    ><g fill="blue" text-rendering="optimizeLegibility" transform="matrix(1,0,0,-1,0,3000)" stroke="blue"
    ><path d="M1700 1750 L2000 1750 L2000 1850 L1700 1850 Z" stroke="none"
    /></g
    ><g fill="red" text-rendering="optimizeLegibility" transform="matrix(1,0,0,-1,0,3000)" stroke="red"
    ><path d="M1700 1850 L2000 1850 L2000 1950 L1700 1950 Z" stroke="none"
    /></g
    ><g fill="blue" text-rendering="optimizeLegibility" transform="matrix(1,0,0,-1,0,3000)" stroke="blue"
    ><path d="M1390 -134 L1810 -134 L1810 0 L1390 0 Z" stroke="none"
      /><path fill="none" d="M1390 -134 L1810 -134 L1810 0 L1390 0 Z" stroke="rgb(10,10,10)"
      /><path fill="rgb(184,183,153)" d="M1412 -112 L1788 -112 L1788 -22 L1412 -22 Z" stroke="none"
      /><path fill="none" d="M1412 -112 L1788 -112 L1788 -22 L1412 -22 Z" stroke="rgb(10,10,10)"
    /></g
    ><g fill="yellow" text-rendering="optimizeLegibility" transform="matrix(1,0,0,-1,0,3000)" stroke="yellow"
    ><path d="M1390 3000 L1810 3000 L1810 3134 L1390 3134 Z" stroke="none"
      /><path fill="none" d="M1390 3000 L1810 3000 L1810 3134 L1390 3134 Z" stroke="rgb(10,10,10)"
      /><path fill="rgb(184,183,153)" d="M1412 3022 L1788 3022 L1788 3112 L1412 3112 Z" stroke="none"
      /><path fill="none" d="M1412 3022 L1788 3022 L1788 3112 L1412 3112 Z" stroke="rgb(10,10,10)"
    /></g
    ><g fill="rgb(184,183,153)" text-rendering="optimizeLegibility" transform="matrix(1,0,0,-1,0,3000)" stroke="rgb(184,183,153)"
    ><path d="M-134 640 L0 640 L0 1060 L-134 1060 Z" stroke="none"
      /><path fill="none" d="M-134 640 L0 640 L0 1060 L-134 1060 Z" stroke="rgb(10,10,10)"
      /><path d="M-112 662 L-22 662 L-22 1038 L-112 1038 Z" stroke="none"
      /><path fill="none" d="M-112 662 L-22 662 L-22 1038 L-112 1038 Z" stroke="rgb(10,10,10)"
    /></g
    ><g fill="rgb(184,183,153)" text-rendering="optimizeLegibility" transform="matrix(1,0,0,-1,0,3000)" stroke="rgb(184,183,153)"
    ><path d="M-134 1940 L0 1940 L0 2360 L-134 2360 Z" stroke="none"
      /><path fill="none" d="M-134 1940 L0 1940 L0 2360 L-134 2360 Z" stroke="rgb(10,10,10)"
      /><path d="M-112 1962 L-22 1962 L-22 2338 L-112 2338 Z" stroke="none"
      /><path fill="none" d="M-112 1962 L-22 1962 L-22 2338 L-112 2338 Z" stroke="rgb(10,10,10)"
    /></g
    ><g fill="rgb(184,183,153)" text-rendering="optimizeLegibility" transform="matrix(1,0,0,-1,0,3000)" stroke="rgb(184,183,153)"
    ><path d="M0 1360 L26 1360 L26 1640 L0 1640 Z" stroke="none"
      /><path fill="none" d="M0 1360 L26 1360 L26 1640 L0 1640 Z" stroke="rgb(10,10,10)"
    /></g
    ><g fill="red" text-rendering="optimizeLegibility" transform="matrix(1,0,0,-1,0,3000) translate(400,300)" stroke="red"
    ><circle r="36" cx="0" cy="0" stroke="none"
      /><circle fill="none" r="36" cx="0" cy="0" stroke="rgb(10,10,10)"
      /><path fill="none" d="M36 0 L18 0 L24 -6 M18 0 L24 6 M0 -36 L0 -18 L-6 -24 M0 -18 L6 -24 M0 36 L0 18 L-6 24 M0 18 L6 24 M-36 0 L-18 0 L-24 -6 M-18 0 L-24 6" stroke="rgb(10,10,10)"
    /></g
    ><g fill="lime" text-rendering="optimizeLegibility" transform="matrix(1,0,0,-1,0,3000) translate(510,450)" stroke="lime"
    ><circle r="36" cx="0" cy="0" stroke="none"
      /><circle fill="none" r="36" cx="0" cy="0" stroke="rgb(10,10,10)"
      /><path fill="none" d="M36 0 L18 0 L24 -6 M18 0 L24 6 M0 -36 L0 -18 L-6 -24 M0 -18 L6 -24 M0 36 L0 18 L-6 24 M0 18 L6 24 M-36 0 L-18 0 L-24 -6 M-18 0 L-24 6" stroke="rgb(10,10,10)"
    /></g
    ><g fill="red" text-rendering="optimizeLegibility" transform="matrix(1,0,0,-1,0,3000) translate(1080,450)" stroke="red"
    ><circle r="36" cx="0" cy="0" stroke="none"
      /><circle fill="none" r="36" cx="0" cy="0" stroke="rgb(10,10,10)"
      /><path fill="none" d="M36 0 L18 0 L24 -6 M18 0 L24 6 M0 -36 L0 -18 L-6 -24 M0 -18 L6 -24 M0 36 L0 18 L-6 24 M0 18 L6 24 M-36 0 L-18 0 L-24 -6 M-18 0 L-24 6" stroke="rgb(10,10,10)"
    /></g
    ><g fill="lime" text-rendering="optimizeLegibility" transform="matrix(1,0,0,-1,0,3000) translate(1200,300)" stroke="lime"
    ><circle r="36" cx="0" cy="0" stroke="none"
      /><circle fill="none" r="36" cx="0" cy="0" stroke="rgb(10,10,10)"
      /><path fill="none" d="M36 0 L18 0 L24 -6 M18 0 L24 6 M0 -36 L0 -18 L-6 -24 M0 -18 L6 -24 M0 36 L0 18 L-6 24 M0 18 L6 24 M-36 0 L-18 0 L-24 -6 M-18 0 L-24 6" stroke="rgb(10,10,10)"
    /></g
    ><g fill="red" text-rendering="optimizeLegibility" transform="matrix(1,0,0,-1,0,3000) translate(100,670)" stroke="red"
    ><circle r="36" cx="0" cy="0" stroke="none"
      /><circle fill="none" r="36" cx="0" cy="0" stroke="rgb(10,10,10)"
      /><path fill="none" d="M36 0 L18 0 L24 -6 M18 0 L24 6 M0 -36 L0 -18 L-6 -24 M0 -18 L6 -24 M0 36 L0 18 L-6 24 M0 18 L6 24 M-36 0 L-18 0 L-24 -6 M-18 0 L-24 6" stroke="rgb(10,10,10)"
    /></g
    ><g fill="lime" text-rendering="optimizeLegibility" transform="matrix(1,0,0,-1,0,3000) translate(400,950)" stroke="lime"
    ><circle r="36" cx="0" cy="0" stroke="none"
      /><circle fill="none" r="36" cx="0" cy="0" stroke="rgb(10,10,10)"
      /><path fill="none" d="M36 0 L18 0 L24 -6 M18 0 L24 6 M0 -36 L0 -18 L-6 -24 M0 -18 L6 -24 M0 36 L0 18 L-6 24 M0 18 L6 24 M-36 0 L-18 0 L-24 -6 M-18 0 L-24 6" stroke="rgb(10,10,10)"
    /></g
    ><g fill="red" text-rendering="optimizeLegibility" transform="matrix(1,0,0,-1,0,3000) translate(800,1100)" stroke="red"
    ><circle r="36" cx="0" cy="0" stroke="none"
      /><circle fill="none" r="36" cx="0" cy="0" stroke="rgb(10,10,10)"
      /><path fill="none" d="M36 0 L18 0 L24 -6 M18 0 L24 6 M0 -36 L0 -18 L-6 -24 M0 -18 L6 -24 M0 36 L0 18 L-6 24 M0 18 L6 24 M-36 0 L-18 0 L-24 -6 M-18 0 L-24 6" stroke="rgb(10,10,10)"
    /></g
    ><g fill="lime" text-rendering="optimizeLegibility" transform="matrix(1,0,0,-1,0,3000) translate(1200,1270)" stroke="lime"
    ><circle r="36" cx="0" cy="0" stroke="none"
      /><circle fill="none" r="36" cx="0" cy="0" stroke="rgb(10,10,10)"
      /><path fill="none" d="M36 0 L18 0 L24 -6 M18 0 L24 6 M0 -36 L0 -18 L-6 -24 M0 -18 L6 -24 M0 36 L0 18 L-6 24 M0 18 L6 24 M-36 0 L-18 0 L-24 -6 M-18 0 L-24 6" stroke="rgb(10,10,10)"
    /></g
    ><g fill="lime" text-rendering="optimizeLegibility" transform="matrix(1,0,0,-1,0,3000) translate(1650,1065)" stroke="lime"
    ><circle r="36" cx="0" cy="0" stroke="none"
      /><circle fill="none" r="36" cx="0" cy="0" stroke="rgb(10,10,10)"
      /><path fill="none" d="M36 0 L18 0 L24 -6 M18 0 L24 6 M0 -36 L0 -18 L-6 -24 M0 -18 L6 -24 M0 36 L0 18 L-6 24 M0 18 L6 24 M-36 0 L-18 0 L-24 -6 M-18 0 L-24 6" stroke="rgb(10,10,10)"
    /></g
    ><g fill="red" text-rendering="optimizeLegibility" transform="matrix(1,0,0,-1,0,3000) translate(1955,1005)" stroke="red"
    ><circle r="36" cx="0" cy="0" stroke="none"
      /><circle fill="none" r="36" cx="0" cy="0" stroke="rgb(10,10,10)"
      /><path fill="none" d="M36 0 L18 0 L24 -6 M18 0 L24 6 M0 -36 L0 -18 L-6 -24 M0 -18 L6 -24 M0 36 L0 18 L-6 24 M0 18 L6 24 M-36 0 L-18 0 L-24 -6 M-18 0 L-24 6" stroke="rgb(10,10,10)"
    /></g
    ><g fill="lime" text-rendering="optimizeLegibility" transform="matrix(1,0,0,-1,0,3000) translate(1955,1395)" stroke="lime"
    ><circle r="36" cx="0" cy="0" stroke="none"
      /><circle fill="none" r="36" cx="0" cy="0" stroke="rgb(10,10,10)"
      /><path fill="none" d="M36 0 L18 0 L24 -6 M18 0 L24 6 M0 -36 L0 -18 L-6 -24 M0 -18 L6 -24 M0 36 L0 18 L-6 24 M0 18 L6 24 M-36 0 L-18 0 L-24 -6 M-18 0 L-24 6" stroke="rgb(10,10,10)"
    /></g
    ><g fill="red" text-rendering="optimizeLegibility" transform="matrix(1,0,0,-1,0,3000) translate(1650,1335)" stroke="red"
    ><circle r="36" cx="0" cy="0" stroke="none"
      /><circle fill="none" r="36" cx="0" cy="0" stroke="rgb(10,10,10)"
      /><path fill="none" d="M36 0 L18 0 L24 -6 M18 0 L24 6 M0 -36 L0 -18 L-6 -24 M0 -18 L6 -24 M0 36 L0 18 L-6 24 M0 18 L6 24 M-36 0 L-18 0 L-24 -6 M-18 0 L-24 6" stroke="rgb(10,10,10)"
    /></g
    ><g fill="lime" text-rendering="optimizeLegibility" transform="matrix(1,0,0,-1,0,3000) translate(1650,1665)" stroke="lime"
    ><circle r="36" cx="0" cy="0" stroke="none"
      /><circle fill="none" r="36" cx="0" cy="0" stroke="rgb(10,10,10)"
      /><path fill="none" d="M36 0 L18 0 L24 -6 M18 0 L24 6 M0 -36 L0 -18 L-6 -24 M0 -18 L6 -24 M0 36 L0 18 L-6 24 M0 18 L6 24 M-36 0 L-18 0 L-24 -6 M-18 0 L-24 6" stroke="rgb(10,10,10)"
    /></g
    ><g fill="red" text-rendering="optimizeLegibility" transform="matrix(1,0,0,-1,0,3000) translate(1955,1605)" stroke="red"
    ><circle r="36" cx="0" cy="0" stroke="none"
      /><circle fill="none" r="36" cx="0" cy="0" stroke="rgb(10,10,10)"
      /><path fill="none" d="M36 0 L18 0 L24 -6 M18 0 L24 6 M0 -36 L0 -18 L-6 -24 M0 -18 L6 -24 M0 36 L0 18 L-6 24 M0 18 L6 24 M-36 0 L-18 0 L-24 -6 M-18 0 L-24 6" stroke="rgb(10,10,10)"
    /></g
    ><g fill="lime" text-rendering="optimizeLegibility" transform="matrix(1,0,0,-1,0,3000) translate(1955,1995)" stroke="lime"
    ><circle r="36" cx="0" cy="0" stroke="none"
      /><circle fill="none" r="36" cx="0" cy="0" stroke="rgb(10,10,10)"
      /><path fill="none" d="M36 0 L18 0 L24 -6 M18 0 L24 6 M0 -36 L0 -18 L-6 -24 M0 -18 L6 -24 M0 36 L0 18 L-6 24 M0 18 L6 24 M-36 0 L-18 0 L-24 -6 M-18 0 L-24 6" stroke="rgb(10,10,10)"
    /></g
    ><g fill="red" text-rendering="optimizeLegibility" transform="matrix(1,0,0,-1,0,3000) translate(1650,1935)" stroke="red"
    ><circle r="36" cx="0" cy="0" stroke="none"
      /><circle fill="none" r="36" cx="0" cy="0" stroke="rgb(10,10,10)"
      /><path fill="none" d="M36 0 L18 0 L24 -6 M18 0 L24 6 M0 -36 L0 -18 L-6 -24 M0 -18 L6 -24 M0 36 L0 18 L-6 24 M0 18 L6 24 M-36 0 L-18 0 L-24 -6 M-18 0 L-24 6" stroke="rgb(10,10,10)"
    /></g
    ><g fill="red" text-rendering="optimizeLegibility" transform="matrix(1,0,0,-1,0,3000) translate(1200,1730)" stroke="red"
    ><circle r="36" cx="0" cy="0" stroke="none"
      /><circle fill="none" r="36" cx="0" cy="0" stroke="rgb(10,10,10)"
      /><path fill="none" d="M36 0 L18 0 L24 -6 M18 0 L24 6 M0 -36 L0 -18 L-6 -24 M0 -18 L6 -24 M0 36 L0 18 L-6 24 M0 18 L6 24 M-36 0 L-18 0 L-24 -6 M-18 0 L-24 6" stroke="rgb(10,10,10)"
    /></g
    ><g fill="lime" text-rendering="optimizeLegibility" transform="matrix(1,0,0,-1,0,3000) translate(800,1900)" stroke="lime"
    ><circle r="36" cx="0" cy="0" stroke="none"
      /><circle fill="none" r="36" cx="0" cy="0" stroke="rgb(10,10,10)"
      /><path fill="none" d="M36 0 L18 0 L24 -6 M18 0 L24 6 M0 -36 L0 -18 L-6 -24 M0 -18 L6 -24 M0 36 L0 18 L-6 24 M0 18 L6 24 M-36 0 L-18 0 L-24 -6 M-18 0 L-24 6" stroke="rgb(10,10,10)"
    /></g
    ><g fill="red" text-rendering="optimizeLegibility" transform="matrix(1,0,0,-1,0,3000) translate(400,2050)" stroke="red"
    ><circle r="36" cx="0" cy="0" stroke="none"
      /><circle fill="none" r="36" cx="0" cy="0" stroke="rgb(10,10,10)"
      /><path fill="none" d="M36 0 L18 0 L24 -6 M18 0 L24 6 M0 -36 L0 -18 L-6 -24 M0 -18 L6 -24 M0 36 L0 18 L-6 24 M0 18 L6 24 M-36 0 L-18 0 L-24 -6 M-18 0 L-24 6" stroke="rgb(10,10,10)"
    /></g
    ><g fill="lime" text-rendering="optimizeLegibility" transform="matrix(1,0,0,-1,0,3000) translate(100,2330)" stroke="lime"
    ><circle r="36" cx="0" cy="0" stroke="none"
      /><circle fill="none" r="36" cx="0" cy="0" stroke="rgb(10,10,10)"
      /><path fill="none" d="M36 0 L18 0 L24 -6 M18 0 L24 6 M0 -36 L0 -18 L-6 -24 M0 -18 L6 -24 M0 36 L0 18 L-6 24 M0 18 L6 24 M-36 0 L-18 0 L-24 -6 M-18 0 L-24 6" stroke="rgb(10,10,10)"
    /></g
    ><g fill="red" text-rendering="optimizeLegibility" transform="matrix(1,0,0,-1,0,3000) translate(1200,2700)" stroke="red"
    ><circle r="36" cx="0" cy="0" stroke="none"
      /><circle fill="none" r="36" cx="0" cy="0" stroke="rgb(10,10,10)"
      /><path fill="none" d="M36 0 L18 0 L24 -6 M18 0 L24 6 M0 -36 L0 -18 L-6 -24 M0 -18 L6 -24 M0 36 L0 18 L-6 24 M0 18 L6 24 M-36 0 L-18 0 L-24 -6 M-18 0 L-24 6" stroke="rgb(10,10,10)"
    /></g
    ><g fill="lime" text-rendering="optimizeLegibility" transform="matrix(1,0,0,-1,0,3000) translate(1080,2550)" stroke="lime"
    ><circle r="36" cx="0" cy="0" stroke="none"
      /><circle fill="none" r="36" cx="0" cy="0" stroke="rgb(10,10,10)"
      /><path fill="none" d="M36 0 L18 0 L24 -6 M18 0 L24 6 M0 -36 L0 -18 L-6 -24 M0 -18 L6 -24 M0 36 L0 18 L-6 24 M0 18 L6 24 M-36 0 L-18 0 L-24 -6 M-18 0 L-24 6" stroke="rgb(10,10,10)"
    /></g
    ><g fill="red" text-rendering="optimizeLegibility" transform="matrix(1,0,0,-1,0,3000) translate(510,2550)" stroke="red"
    ><circle r="36" cx="0" cy="0" stroke="none"
      /><circle fill="none" r="36" cx="0" cy="0" stroke="rgb(10,10,10)"
      /><path fill="none" d="M36 0 L18 0 L24 -6 M18 0 L24 6 M0 -36 L0 -18 L-6 -24 M0 -18 L6 -24 M0 36 L0 18 L-6 24 M0 18 L6 24 M-36 0 L-18 0 L-24 -6 M-18 0 L-24 6" stroke="rgb(10,10,10)"
    /></g
    ><g fill="lime" text-rendering="optimizeLegibility" transform="matrix(1,0,0,-1,0,3000) translate(400,2700)" stroke="lime"
    ><circle r="36" cx="0" cy="0" stroke="none"
      /><circle fill="none" r="36" cx="0" cy="0" stroke="rgb(10,10,10)"
      /><path fill="none" d="M36 0 L18 0 L24 -6 M18 0 L24 6 M0 -36 L0 -18 L-6 -24 M0 -18 L6 -24 M0 36 L0 18 L-6 24 M0 18 L6 24 M-36 0 L-18 0 L-24 -6 M-18 0 L-24 6" stroke="rgb(10,10,10)"
    /></g
    ><g fill="red" text-rendering="optimizeLegibility" transform="matrix(1,0,0,-1,0,3000) translate(1450,-67)" stroke="red"
    ><circle r="36" cx="0" cy="0" stroke="none"
      /><circle fill="none" r="36" cx="0" cy="0" stroke="rgb(10,10,10)"
      /><circle fill="none" r="30" cx="0" cy="0" stroke="rgb(10,10,10)"
    /></g
    ><g fill="lime" text-rendering="optimizeLegibility" transform="matrix(1,0,0,-1,0,3000) translate(1525,-67)" stroke="lime"
    ><circle r="36" cx="0" cy="0" stroke="none"
      /><circle fill="none" r="36" cx="0" cy="0" stroke="rgb(10,10,10)"
      /><circle fill="none" r="30" cx="0" cy="0" stroke="rgb(10,10,10)"
    /></g
    ><g fill="red" text-rendering="optimizeLegibility" transform="matrix(1,0,0,-1,0,3000) translate(1600,-67)" stroke="red"
    ><circle r="36" cx="0" cy="0" stroke="none"
      /><circle fill="none" r="36" cx="0" cy="0" stroke="rgb(10,10,10)"
      /><circle fill="none" r="30" cx="0" cy="0" stroke="rgb(10,10,10)"
    /></g
    ><g fill="lime" text-rendering="optimizeLegibility" transform="matrix(1,0,0,-1,0,3000) translate(1675,-67)" stroke="lime"
    ><circle r="36" cx="0" cy="0" stroke="none"
      /><circle fill="none" r="36" cx="0" cy="0" stroke="rgb(10,10,10)"
      /><circle fill="none" r="30" cx="0" cy="0" stroke="rgb(10,10,10)"
    /></g
    ><g fill="red" text-rendering="optimizeLegibility" transform="matrix(1,0,0,-1,0,3000) translate(1750,-67)" stroke="red"
    ><circle r="36" cx="0" cy="0" stroke="none"
      /><circle fill="none" r="36" cx="0" cy="0" stroke="rgb(10,10,10)"
      /><circle fill="none" r="30" cx="0" cy="0" stroke="rgb(10,10,10)"
    /></g
    ><g fill="lime" text-rendering="optimizeLegibility" transform="matrix(1,0,0,-1,0,3000) translate(1450,3067)" stroke="lime"
    ><circle r="36" cx="0" cy="0" stroke="none"
      /><circle fill="none" r="36" cx="0" cy="0" stroke="rgb(10,10,10)"
      /><circle fill="none" r="30" cx="0" cy="0" stroke="rgb(10,10,10)"
    /></g
    ><g fill="red" text-rendering="optimizeLegibility" transform="matrix(1,0,0,-1,0,3000) translate(1525,3067)" stroke="red"
    ><circle r="36" cx="0" cy="0" stroke="none"
      /><circle fill="none" r="36" cx="0" cy="0" stroke="rgb(10,10,10)"
      /><circle fill="none" r="30" cx="0" cy="0" stroke="rgb(10,10,10)"
    /></g
    ><g fill="lime" text-rendering="optimizeLegibility" transform="matrix(1,0,0,-1,0,3000) translate(1600,3067)" stroke="lime"
    ><circle r="36" cx="0" cy="0" stroke="none"
      /><circle fill="none" r="36" cx="0" cy="0" stroke="rgb(10,10,10)"
      /><circle fill="none" r="30" cx="0" cy="0" stroke="rgb(10,10,10)"
    /></g
    ><g fill="red" text-rendering="optimizeLegibility" transform="matrix(1,0,0,-1,0,3000) translate(1675,3067)" stroke="red"
    ><circle r="36" cx="0" cy="0" stroke="none"
      /><circle fill="none" r="36" cx="0" cy="0" stroke="rgb(10,10,10)"
      /><circle fill="none" r="30" cx="0" cy="0" stroke="rgb(10,10,10)"
    /></g
    ><g fill="lime" text-rendering="optimizeLegibility" transform="matrix(1,0,0,-1,0,3000) translate(1750,3067)" stroke="lime"
    ><circle r="36" cx="0" cy="0" stroke="none"
      /><circle fill="none" r="36" cx="0" cy="0" stroke="rgb(10,10,10)"
      /><circle fill="none" r="30" cx="0" cy="0" stroke="rgb(10,10,10)"
    /></g
    ><g fill="lime" text-rendering="optimizeLegibility" transform="matrix(1,0,0,-1,0,3000) translate(-67,700)" stroke="lime"
    ><circle r="36" cx="0" cy="0" stroke="none"
      /><circle fill="none" r="36" cx="0" cy="0" stroke="rgb(10,10,10)"
      /><circle fill="none" r="30" cx="0" cy="0" stroke="rgb(10,10,10)"
    /></g
    ><g fill="lime" text-rendering="optimizeLegibility" transform="matrix(1,0,0,-1,0,3000) translate(-67,775)" stroke="lime"
    ><circle r="36" cx="0" cy="0" stroke="none"
      /><circle fill="none" r="36" cx="0" cy="0" stroke="rgb(10,10,10)"
      /><circle fill="none" r="30" cx="0" cy="0" stroke="rgb(10,10,10)"
    /></g
    ><g fill="lime" text-rendering="optimizeLegibility" transform="matrix(1,0,0,-1,0,3000) translate(-67,850)" stroke="lime"
    ><circle r="36" cx="0" cy="0" stroke="none"
      /><circle fill="none" r="36" cx="0" cy="0" stroke="rgb(10,10,10)"
      /><circle fill="none" r="30" cx="0" cy="0" stroke="rgb(10,10,10)"
    /></g
    ><g fill="red" text-rendering="optimizeLegibility" transform="matrix(1,0,0,-1,0,3000) translate(-67,925)" stroke="red"
    ><circle r="36" cx="0" cy="0" stroke="none"
      /><circle fill="none" r="36" cx="0" cy="0" stroke="rgb(10,10,10)"
      /><circle fill="none" r="30" cx="0" cy="0" stroke="rgb(10,10,10)"
    /></g
    ><g fill="red" text-rendering="optimizeLegibility" transform="matrix(1,0,0,-1,0,3000) translate(-67,1000)" stroke="red"
    ><circle r="36" cx="0" cy="0" stroke="none"
      /><circle fill="none" r="36" cx="0" cy="0" stroke="rgb(10,10,10)"
      /><circle fill="none" r="30" cx="0" cy="0" stroke="rgb(10,10,10)"
    /></g
    ><g fill="lime" text-rendering="optimizeLegibility" transform="matrix(1,0,0,-1,0,3000) translate(-67,2000)" stroke="lime"
    ><circle r="36" cx="0" cy="0" stroke="none"
      /><circle fill="none" r="36" cx="0" cy="0" stroke="rgb(10,10,10)"
      /><circle fill="none" r="30" cx="0" cy="0" stroke="rgb(10,10,10)"
    /></g
    ><g fill="lime" text-rendering="optimizeLegibility" transform="matrix(1,0,0,-1,0,3000) translate(-67,2075)" stroke="lime"
    ><circle r="36" cx="0" cy="0" stroke="none"
      /><circle fill="none" r="36" cx="0" cy="0" stroke="rgb(10,10,10)"
      /><circle fill="none" r="30" cx="0" cy="0" stroke="rgb(10,10,10)"
    /></g
    ><g fill="red" text-rendering="optimizeLegibility" transform="matrix(1,0,0,-1,0,3000) translate(-67,2150)" stroke="red"
    ><circle r="36" cx="0" cy="0" stroke="none"
      /><circle fill="none" r="36" cx="0" cy="0" stroke="rgb(10,10,10)"
      /><circle fill="none" r="30" cx="0" cy="0" stroke="rgb(10,10,10)"
    /></g
    ><g fill="red" text-rendering="optimizeLegibility" transform="matrix(1,0,0,-1,0,3000) translate(-67,2225)" stroke="red"
    ><circle r="36" cx="0" cy="0" stroke="none"
      /><circle fill="none" r="36" cx="0" cy="0" stroke="rgb(10,10,10)"
      /><circle fill="none" r="30" cx="0" cy="0" stroke="rgb(10,10,10)"
    /></g
    ><g fill="red" text-rendering="optimizeLegibility" transform="matrix(1,0,0,-1,0,3000) translate(-67,2300)" stroke="red"
    ><circle r="36" cx="0" cy="0" stroke="none"
      /><circle fill="none" r="36" cx="0" cy="0" stroke="rgb(10,10,10)"
      /><circle fill="none" r="30" cx="0" cy="0" stroke="rgb(10,10,10)"
    /></g
  ></g
></svg
>
